## Autogenerated by Scribe. DO NOT MODIFY.

name: 商品分類管理
description: ''
endpoints:
  -
    httpMethods:
      - GET
    uri: api/product-categories
    metadata:
      groupName: 商品分類管理
      groupDescription: ''
      subgroup: ''
      subgroupDescription: ''
      title: 取得分類清單
      description: 支援分頁、篩選、搜尋等功能。可通過查詢參數控制返回結果。
      authenticated: false
      custom: []
    headers:
      Content-Type: application/json
      Accept: application/json
    urlParameters: []
    cleanUrlParameters: []
    queryParameters:
      search:
        name: search
        description: 搜尋關鍵字（支援名稱、描述）
        required: false
        example: 電子產品
        type: string
        enumValues: []
        exampleWasSpecified: true
        nullable: false
        custom: []
      status:
        name: status
        description: 分類狀態篩選
        required: false
        example: true
        type: boolean
        enumValues: []
        exampleWasSpecified: true
        nullable: false
        custom: []
      parent_id:
        name: parent_id
        description: 父分類ID篩選
        required: false
        example: 1
        type: integer
        enumValues: []
        exampleWasSpecified: true
        nullable: false
        custom: []
      depth:
        name: depth
        description: 分類深度篩選
        required: false
        example: 2
        type: integer
        enumValues: []
        exampleWasSpecified: true
        nullable: false
        custom: []
      with_children:
        name: with_children
        description: 是否包含子分類
        required: false
        example: true
        type: boolean
        enumValues: []
        exampleWasSpecified: true
        nullable: false
        custom: []
      max_depth:
        name: max_depth
        description: 最大深度限制
        required: false
        example: 3
        type: integer
        enumValues: []
        exampleWasSpecified: true
        nullable: false
        custom: []
      with_trashed:
        name: with_trashed
        description: 是否包含已刪除項目
        required: false
        example: false
        type: boolean
        enumValues: []
        exampleWasSpecified: true
        nullable: false
        custom: []
      per_page:
        name: per_page
        description: 每頁項目數（1-100）
        required: false
        example: 20
        type: integer
        enumValues: []
        exampleWasSpecified: true
        nullable: false
        custom: []
      page:
        name: page
        description: 頁碼
        required: false
        example: 1
        type: integer
        enumValues: []
        exampleWasSpecified: true
        nullable: false
        custom: []
    cleanQueryParameters:
      search: 電子產品
      status: true
      parent_id: 1
      depth: 2
      with_children: true
      max_depth: 3
      with_trashed: false
      per_page: 20
      page: 1
    bodyParameters: []
    cleanBodyParameters: []
    fileParameters: []
    responses:
      -
        status: 200
        content: |-
          {
            "data": [
              {
                "id": 1,
                "name": "電子產品",
                "slug": "electronics",
                "parent_id": null,
                "position": 1,
                "status": true,
                "depth": 0,
                "description": "各類電子產品分類",
                "meta_title": "電子產品 | LomisX3",
                "meta_description": "電子產品相關商品分類",
                "path": "/1/",
                "has_children": true,
                "full_path": "電子產品",
                "children_count": 5,
                "created_at": "2025-01-07T10:00:00.000000Z",
                "updated_at": "2025-01-07T10:00:00.000000Z"
              }
            ],
            "links": {
              "first": "http://localhost/api/product-categories?page=1",
              "last": "http://localhost/api/product-categories?page=10",
              "prev": null,
              "next": "http://localhost/api/product-categories?page=2"
            },
            "meta": {
              "current_page": 1,
              "from": 1,
              "last_page": 10,
              "per_page": 20,
              "to": 20,
              "total": 200
            }
          }
        headers: []
        description: ''
        custom: []
      -
        status: 422
        content: |-
          {
            "success": false,
            "message": "驗證失敗",
            "errors": {
              "per_page": ["每頁項目數不能超過100"]
            }
          }
        headers: []
        description: ''
        custom: []
    responseFields: []
    auth: []
    controller: null
    method: null
    route: null
    custom: []
  -
    httpMethods:
      - POST
    uri: api/product-categories
    metadata:
      groupName: 商品分類管理
      groupDescription: ''
      subgroup: ''
      subgroupDescription: ''
      title: 儲存新分類
      description: 創建新的商品分類。系統將自動計算層級深度、生成唯一slug，並觸發快取更新。
      authenticated: false
      custom: []
    headers:
      Content-Type: application/json
      Accept: application/json
    urlParameters: []
    cleanUrlParameters: []
    queryParameters: []
    cleanQueryParameters: []
    bodyParameters:
      name:
        name: name
        description: 分類名稱（2-100字元）
        required: true
        example: 智慧型手機
        type: string
        enumValues: []
        exampleWasSpecified: true
        nullable: false
        custom: []
      slug:
        name: slug
        description: 自訂URL別名（可選，系統會自動生成）
        required: false
        example: smartphones
        type: string
        enumValues: []
        exampleWasSpecified: true
        nullable: true
        custom: []
      parent_id:
        name: parent_id
        description: 父分類ID（可選）
        required: false
        example: 1
        type: integer
        enumValues: []
        exampleWasSpecified: true
        nullable: true
        custom: []
      position:
        name: position
        description: 排序位置（可選，預設自動計算）
        required: false
        example: 10
        type: integer
        enumValues: []
        exampleWasSpecified: true
        nullable: true
        custom: []
      status:
        name: status
        description: 啟用狀態（預設true）
        required: false
        example: true
        type: boolean
        enumValues: []
        exampleWasSpecified: true
        nullable: true
        custom: []
      description:
        name: description
        description: 分類描述（可選）
        required: false
        example: 各種品牌的智慧型手機
        type: string
        enumValues: []
        exampleWasSpecified: true
        nullable: true
        custom: []
      meta_title:
        name: meta_title
        description: SEO標題（可選，預設使用分類名稱）
        required: false
        example: '智慧型手機 | LomisX3'
        type: string
        enumValues: []
        exampleWasSpecified: true
        nullable: true
        custom: []
      meta_description:
        name: meta_description
        description: SEO描述（可選）
        required: false
        example: 提供各大品牌智慧型手機，包含最新機型與優惠價格
        type: string
        enumValues: []
        exampleWasSpecified: true
        nullable: true
        custom: []
    cleanBodyParameters:
      name: 智慧型手機
      slug: smartphones
      parent_id: 1
      position: 10
      status: true
      description: 各種品牌的智慧型手機
      meta_title: '智慧型手機 | LomisX3'
      meta_description: 提供各大品牌智慧型手機，包含最新機型與優惠價格
    fileParameters: []
    responses:
      -
        status: 201
        content: |-
          {
            "success": true,
            "message": "分類建立成功",
            "data": {
              "id": 15,
              "name": "智慧型手機",
              "slug": "smartphones",
              "parent_id": 1,
              "position": 10,
              "status": true,
              "depth": 1,
              "description": "各種品牌的智慧型手機",
              "meta_title": "智慧型手機 | LomisX3",
              "meta_description": "提供各大品牌智慧型手機，包含最新機型與優惠價格",
              "path": "/1/15/",
              "has_children": false,
              "full_path": "電子產品 > 智慧型手機",
              "children_count": 0,
              "created_at": "2025-01-07T10:30:00.000000Z",
              "updated_at": "2025-01-07T10:30:00.000000Z"
            }
          }
        headers: []
        description: ''
        custom: []
      -
        status: 400
        content: |-
          {
            "success": false,
            "message": "分類建立失敗：超過最大層級限制",
            "code": "MAX_DEPTH_EXCEEDED"
          }
        headers: []
        description: ''
        custom: []
      -
        status: 422
        content: |-
          {
            "success": false,
            "message": "分類建立失敗：名稱已存在",
            "code": "CATEGORY_CREATE_FAILED",
            "errors": {
              "name": ["分類名稱已存在"]
            }
          }
        headers: []
        description: ''
        custom: []
    responseFields: []
    auth: []
    controller: null
    method: null
    route: null
    custom: []
  -
    httpMethods:
      - GET
    uri: 'api/product-categories/{id}'
    metadata:
      groupName: 商品分類管理
      groupDescription: ''
      subgroup: ''
      subgroupDescription: ''
      title: 顯示指定分類
      description: 取得單一商品分類的詳細資訊，包含父分類和子分類資料。
      authenticated: false
      custom: []
    headers:
      Content-Type: application/json
      Accept: application/json
    urlParameters:
      id:
        name: id
        description: 'The ID of the product category.'
        required: true
        example: 1
        type: integer
        enumValues: []
        exampleWasSpecified: false
        nullable: false
        custom: []
      productCategory:
        name: productCategory
        description: 分類ID
        required: true
        example: 1
        type: integer
        enumValues: []
        exampleWasSpecified: true
        nullable: false
        custom: []
    cleanUrlParameters:
      id: 1
      productCategory: 1
    queryParameters: []
    cleanQueryParameters: []
    bodyParameters: []
    cleanBodyParameters: []
    fileParameters: []
    responses:
      -
        status: 200
        content: |-
          {
            "success": true,
            "data": {
              "id": 1,
              "name": "電子產品",
              "slug": "electronics",
              "parent_id": null,
              "position": 1,
              "status": true,
              "depth": 0,
              "description": "各類電子產品分類",
              "meta_title": "電子產品 | LomisX3",
              "meta_description": "電子產品相關商品分類",
              "path": "/1/",
              "has_children": true,
              "full_path": "電子產品",
              "children_count": 5,
              "parent": null,
              "children": [
                {
                  "id": 2,
                  "name": "智慧型手機",
                  "slug": "smartphones",
                  "parent_id": 1,
                  "status": true,
                  "depth": 1
                }
              ],
              "created_at": "2025-01-07T10:00:00.000000Z",
              "updated_at": "2025-01-07T10:00:00.000000Z"
            }
          }
        headers: []
        description: ''
        custom: []
      -
        status: 404
        content: |-
          {
            "success": false,
            "message": "分類不存在"
          }
        headers: []
        description: ''
        custom: []
    responseFields: []
    auth: []
    controller: null
    method: null
    route: null
    custom: []
  -
    httpMethods:
      - PUT
      - PATCH
    uri: 'api/product-categories/{id}'
    metadata:
      groupName: 商品分類管理
      groupDescription: ''
      subgroup: ''
      subgroupDescription: ''
      title: 更新指定分類
      description: 更新商品分類資訊。變更父分類時會自動重新計算層級結構和快取。
      authenticated: false
      custom: []
    headers:
      Content-Type: application/json
      Accept: application/json
    urlParameters:
      id:
        name: id
        description: 'The ID of the product category.'
        required: true
        example: 1
        type: integer
        enumValues: []
        exampleWasSpecified: false
        nullable: false
        custom: []
      productCategory:
        name: productCategory
        description: 分類ID
        required: true
        example: 1
        type: integer
        enumValues: []
        exampleWasSpecified: true
        nullable: false
        custom: []
    cleanUrlParameters:
      id: 1
      productCategory: 1
    queryParameters: []
    cleanQueryParameters: []
    bodyParameters:
      name:
        name: name
        description: 分類名稱（2-100字元）
        required: false
        example: 更新的分類名稱
        type: string
        enumValues: []
        exampleWasSpecified: true
        nullable: false
        custom: []
      slug:
        name: slug
        description: 自訂URL別名
        required: false
        example: updated-slug
        type: string
        enumValues: []
        exampleWasSpecified: true
        nullable: true
        custom: []
      parent_id:
        name: parent_id
        description: 父分類ID（設為null表示設為根分類）
        required: false
        example: 2
        type: integer
        enumValues: []
        exampleWasSpecified: true
        nullable: true
        custom: []
      position:
        name: position
        description: 排序位置
        required: false
        example: 15
        type: integer
        enumValues: []
        exampleWasSpecified: true
        nullable: true
        custom: []
      status:
        name: status
        description: 啟用狀態
        required: false
        example: false
        type: boolean
        enumValues: []
        exampleWasSpecified: true
        nullable: true
        custom: []
      description:
        name: description
        description: 分類描述
        required: false
        example: 更新的分類描述
        type: string
        enumValues: []
        exampleWasSpecified: true
        nullable: true
        custom: []
      meta_title:
        name: meta_title
        description: SEO標題
        required: false
        example: 更新的SEO標題
        type: string
        enumValues: []
        exampleWasSpecified: true
        nullable: true
        custom: []
      meta_description:
        name: meta_description
        description: SEO描述
        required: false
        example: 更新的SEO描述
        type: string
        enumValues: []
        exampleWasSpecified: true
        nullable: true
        custom: []
    cleanBodyParameters:
      name: 更新的分類名稱
      slug: updated-slug
      parent_id: 2
      position: 15
      status: false
      description: 更新的分類描述
      meta_title: 更新的SEO標題
      meta_description: 更新的SEO描述
    fileParameters: []
    responses:
      -
        status: 200
        content: |-
          {
            "success": true,
            "message": "分類更新成功",
            "data": {
              "id": 1,
              "name": "更新的分類名稱",
              "slug": "updated-slug",
              "parent_id": 2,
              "position": 15,
              "status": false,
              "depth": 1,
              "description": "更新的分類描述",
              "meta_title": "更新的SEO標題",
              "meta_description": "更新的SEO描述",
              "path": "/2/1/",
              "has_children": true,
              "full_path": "父分類 > 更新的分類名稱",
              "children_count": 3,
              "created_at": "2025-01-07T10:00:00.000000Z",
              "updated_at": "2025-01-07T11:00:00.000000Z"
            }
          }
        headers: []
        description: ''
        custom: []
      -
        status: 404
        content: |-
          {
            "success": false,
            "message": "分類不存在"
          }
        headers: []
        description: ''
        custom: []
      -
        status: 422
        content: |-
          {
            "success": false,
            "message": "分類更新失敗：會造成循環引用",
            "code": "CATEGORY_UPDATE_FAILED"
          }
        headers: []
        description: ''
        custom: []
    responseFields: []
    auth: []
    controller: null
    method: null
    route: null
    custom: []
  -
    httpMethods:
      - DELETE
    uri: 'api/product-categories/{id}'
    metadata:
      groupName: 商品分類管理
      groupDescription: ''
      subgroup: ''
      subgroupDescription: ''
      title: 刪除指定分類
      description: 軟刪除商品分類。只能刪除沒有子分類的分類，刪除後會觸發快取更新。
      authenticated: false
      custom: []
    headers:
      Content-Type: application/json
      Accept: application/json
    urlParameters:
      id:
        name: id
        description: 'The ID of the product category.'
        required: true
        example: 1
        type: integer
        enumValues: []
        exampleWasSpecified: false
        nullable: false
        custom: []
      productCategory:
        name: productCategory
        description: 分類ID
        required: true
        example: 1
        type: integer
        enumValues: []
        exampleWasSpecified: true
        nullable: false
        custom: []
    cleanUrlParameters:
      id: 1
      productCategory: 1
    queryParameters: []
    cleanQueryParameters: []
    bodyParameters: []
    cleanBodyParameters: []
    fileParameters: []
    responses:
      -
        status: 200
        content: |-
          {
            "success": true,
            "message": "分類刪除成功"
          }
        headers: []
        description: ''
        custom: []
      -
        status: 404
        content: |-
          {
            "success": false,
            "message": "分類不存在"
          }
        headers: []
        description: ''
        custom: []
      -
        status: 422
        content: |-
          {
            "success": false,
            "message": "分類刪除失敗：該分類包含子分類",
            "code": "CATEGORY_DELETE_FAILED"
          }
        headers: []
        description: ''
        custom: []
    responseFields: []
    auth: []
    controller: null
    method: null
    route: null
    custom: []
  -
    httpMethods:
      - GET
    uri: api/product-categories/tree
    metadata:
      groupName: 商品分類管理
      groupDescription: ''
      subgroup: ''
      subgroupDescription: ''
      title: 取得樹狀結構
      description: 獲取完整的分類樹狀結構，支援快取優化，適用於選單展示和層級瀏覽。
      authenticated: false
      custom: []
    headers:
      Content-Type: application/json
      Accept: application/json
    urlParameters: []
    cleanUrlParameters: []
    queryParameters:
      only_active:
        name: only_active
        description: 僅顯示啟用的分類（預設true）
        required: false
        example: true
        type: boolean
        enumValues: []
        exampleWasSpecified: true
        nullable: false
        custom: []
      max_depth:
        name: max_depth
        description: 最大顯示深度
        required: false
        example: 3
        type: integer
        enumValues: []
        exampleWasSpecified: true
        nullable: false
        custom: []
      root_id:
        name: root_id
        description: 指定根分類ID（顯示特定子樹）
        required: false
        example: 1
        type: integer
        enumValues: []
        exampleWasSpecified: true
        nullable: false
        custom: []
    cleanQueryParameters:
      only_active: true
      max_depth: 3
      root_id: 1
    bodyParameters: []
    cleanBodyParameters: []
    fileParameters: []
    responses:
      -
        status: 200
        content: |-
          {
            "success": true,
            "data": [
              {
                "id": 1,
                "name": "電子產品",
                "slug": "electronics",
                "parent_id": null,
                "position": 1,
                "status": true,
                "depth": 0,
                "has_children": true,
                "children_count": 3,
                "children": [
                  {
                    "id": 2,
                    "name": "智慧型手機",
                    "slug": "smartphones",
                    "parent_id": 1,
                    "position": 1,
                    "status": true,
                    "depth": 1,
                    "has_children": false,
                    "children_count": 0,
                    "children": []
                  }
                ]
              }
            ],
            "meta": {
              "total_categories": 25,
              "max_depth": 3,
              "cache_hit": true
            }
          }
        headers: []
        description: ''
        custom: []
    responseFields: []
    auth: []
    controller: null
    method: null
    route: null
    custom: []
  -
    httpMethods:
      - GET
    uri: 'api/product-categories/{product_category_id}/breadcrumbs'
    metadata:
      groupName: 商品分類管理
      groupDescription: ''
      subgroup: ''
      subgroupDescription: ''
      title: 取得麵包屑
      description: ''
      authenticated: false
      custom: []
    headers:
      Content-Type: application/json
      Accept: application/json
    urlParameters:
      product_category_id:
        name: product_category_id
        description: 'The ID of the product category.'
        required: true
        example: 1
        type: integer
        enumValues: []
        exampleWasSpecified: false
        nullable: false
        custom: []
    cleanUrlParameters:
      product_category_id: 1
    queryParameters: []
    cleanQueryParameters: []
    bodyParameters: []
    cleanBodyParameters: []
    fileParameters: []
    responses:
      -
        status: 500
        content: |-
          {
              "message": "Server Error"
          }
        headers:
          cache-control: 'no-cache, private'
          content-type: application/json
          vary: Origin
        description: null
        custom: []
    responseFields: []
    auth: []
    controller: null
    method: null
    route: null
    custom: []
  -
    httpMethods:
      - GET
    uri: 'api/product-categories/{product_category_id}/descendants'
    metadata:
      groupName: 商品分類管理
      groupDescription: ''
      subgroup: ''
      subgroupDescription: ''
      title: 取得子孫分類
      description: ''
      authenticated: false
      custom: []
    headers:
      Content-Type: application/json
      Accept: application/json
    urlParameters:
      product_category_id:
        name: product_category_id
        description: 'The ID of the product category.'
        required: true
        example: 1
        type: integer
        enumValues: []
        exampleWasSpecified: false
        nullable: false
        custom: []
    cleanUrlParameters:
      product_category_id: 1
    queryParameters: []
    cleanQueryParameters: []
    bodyParameters: []
    cleanBodyParameters: []
    fileParameters: []
    responses:
      -
        status: 500
        content: |-
          {
              "message": "Server Error"
          }
        headers:
          cache-control: 'no-cache, private'
          content-type: application/json
          vary: Origin
        description: null
        custom: []
    responseFields: []
    auth: []
    controller: null
    method: null
    route: null
    custom: []
  -
    httpMethods:
      - PATCH
    uri: api/product-categories/sort
    metadata:
      groupName: 商品分類管理
      groupDescription: ''
      subgroup: ''
      subgroupDescription: ''
      title: 拖曳排序
      description: ''
      authenticated: false
      custom: []
    headers:
      Content-Type: application/json
      Accept: application/json
    urlParameters: []
    cleanUrlParameters: []
    queryParameters: []
    cleanQueryParameters: []
    bodyParameters:
      positions:
        name: positions
        description: 'Must have at least 1 items.'
        required: true
        example:
          - []
        type: 'object[]'
        enumValues: []
        exampleWasSpecified: false
        nullable: false
        custom: []
      'positions[].id':
        name: 'positions[].id'
        description: 'The <code>id</code> of an existing record in the product_categories table.'
        required: true
        example: 17
        type: integer
        enumValues: []
        exampleWasSpecified: false
        nullable: false
        custom: []
      'positions[].position':
        name: 'positions[].position'
        description: 'Must be at least 0.'
        required: true
        example: 45
        type: integer
        enumValues: []
        exampleWasSpecified: false
        nullable: false
        custom: []
      'positions[].parent_id':
        name: 'positions[].parent_id'
        description: 'The <code>id</code> of an existing record in the product_categories table.'
        required: false
        example: 17
        type: integer
        enumValues: []
        exampleWasSpecified: false
        nullable: true
        custom: []
    cleanBodyParameters:
      positions:
        -
          id: 17
          position: 45
          parent_id: 17
    fileParameters: []
    responses: []
    responseFields: []
    auth: []
    controller: null
    method: null
    route: null
    custom: []
  -
    httpMethods:
      - PATCH
    uri: api/product-categories/batch-status
    metadata:
      groupName: 商品分類管理
      groupDescription: ''
      subgroup: ''
      subgroupDescription: ''
      title: 批次更新狀態
      description: ''
      authenticated: false
      custom: []
    headers:
      Content-Type: application/json
      Accept: application/json
    urlParameters: []
    cleanUrlParameters: []
    queryParameters: []
    cleanQueryParameters: []
    bodyParameters:
      ids:
        name: ids
        description: 'The <code>id</code> of an existing record in the product_categories table.'
        required: false
        example:
          - 17
        type: 'integer[]'
        enumValues: []
        exampleWasSpecified: false
        nullable: false
        custom: []
      status:
        name: status
        description: ''
        required: true
        example: false
        type: boolean
        enumValues: []
        exampleWasSpecified: false
        nullable: false
        custom: []
    cleanBodyParameters:
      ids:
        - 17
      status: false
    fileParameters: []
    responses: []
    responseFields: []
    auth: []
    controller: null
    method: null
    route: null
    custom: []
  -
    httpMethods:
      - DELETE
    uri: api/product-categories/batch-delete
    metadata:
      groupName: 商品分類管理
      groupDescription: ''
      subgroup: ''
      subgroupDescription: ''
      title: 批次刪除
      description: ''
      authenticated: false
      custom: []
    headers:
      Content-Type: application/json
      Accept: application/json
    urlParameters: []
    cleanUrlParameters: []
    queryParameters: []
    cleanQueryParameters: []
    bodyParameters:
      ids:
        name: ids
        description: 'The <code>id</code> of an existing record in the product_categories table.'
        required: false
        example:
          - 17
        type: 'integer[]'
        enumValues: []
        exampleWasSpecified: false
        nullable: false
        custom: []
    cleanBodyParameters:
      ids:
        - 17
    fileParameters: []
    responses: []
    responseFields: []
    auth: []
    controller: null
    method: null
    route: null
    custom: []
  -
    httpMethods:
      - GET
    uri: api/product-categories/statistics
    metadata:
      groupName: 商品分類管理
      groupDescription: ''
      subgroup: ''
      subgroupDescription: ''
      title: 取得分類統計
      description: ''
      authenticated: false
      custom: []
    headers:
      Content-Type: application/json
      Accept: application/json
    urlParameters: []
    cleanUrlParameters: []
    queryParameters: []
    cleanQueryParameters: []
    bodyParameters: []
    cleanBodyParameters: []
    fileParameters: []
    responses:
      -
        status: 403
        content: |-
          {
              "message": "This action is unauthorized."
          }
        headers:
          cache-control: 'no-cache, private'
          content-type: application/json
          vary: Origin
        description: null
        custom: []
    responseFields: []
    auth: []
    controller: null
    method: null
    route: null
    custom: []
